OS: GNOME 45 (Flatpak runtime)
HandBrake 1.7.2 (2024010400)
Kernel: Linux 6.6.11_1 (x86_64)
CPU: Unknown x 8
Install Dir: /app/bin
Config Dir:  /home/peppe/.var/app/fr.handbrake.ghb/config/ghb
_______________________________

[11:53:48] Compile-time hardening features are enabled
Cannot load libnvidia-encode.so.1
[11:53:48] qsv: not available on this system
[11:53:48] hb_init: starting libhb thread
[11:53:48] hb_init: starting libhb thread
[11:53:48] hb_init: starting libhb thread

(fr.handbrake.ghb:2): Gtk-WARNING **: 11:53:48.352: Duplicate child name in GtkStack: My General
