{
    "Preferences": {
        "ActivityFontSize": 8.0,
        "AddCC": false,
        "AutoScan": false,
        "CustomTmpDir": "",
        "CustomTmpEnable": false,
        "DiskFreeCheck": true,
        "DiskFreeLimit": 2000.0,
        "EncodeLogLocation": false,
        "ExportDirectory": "/home/peppe/.config/ghb",
        "LogLongevity": "immortal",
        "LoggingLevel": "1",
        "LowBatteryLevel": 15,
        "MinTitleDuration": 10,
        "PauseEncodingOnBatteryPower": false,
        "PauseEncodingOnLowBattery": false,
        "PauseEncodingOnPowerSave": true,
        "PreferredLanguage": "und",
        "RemoveFinishedJobs": false,
        "ShowMiniPreview": true,
        "SrtDir": "/home/peppe/Downloads",
        "SyncTitleSettings": true,
        "UseM4v": false,
        "VideoQualityGranularity": "1",
        "WhenComplete": "notify",
        "allow_tweaks": false,
        "auto_name": true,
        "auto_name_template": "{source}",
        "default_source": "/home/peppe/Downloads/Poor Things 2023 1080p WEBRip AV1 Opus 5.1 [981]/Poor Things.mkv",
        "destination_dir": "/home/peppe/Videos/New Stuff/Poor Things  - 2023 - IMDB 8.3",
        "hbfd": false,
        "hbfd_feature": false,
        "live_duration": 15,
        "preset_window_height": 1,
        "preset_window_width": 1,
        "preview_count": 10,
        "preview_show_crop": false,
        "preview_x": -1,
        "preview_y": -1,
        "reduce_hd_preview": true,
        "use_dvdnav": true,
        "version": "0.1",
        "window_height": 834,
        "window_width": 1222
    }
}